{
  "main.css": "/crf-entraineur-dindicatif/static/css/main.248e22c4.chunk.css",
  "main.js": "/crf-entraineur-dindicatif/static/js/main.88db4c47.chunk.js",
  "main.js.map": "/crf-entraineur-dindicatif/static/js/main.88db4c47.chunk.js.map",
  "static/css/1.f129047b.chunk.css": "/crf-entraineur-dindicatif/static/css/1.f129047b.chunk.css",
  "static/js/1.96e300b7.chunk.js": "/crf-entraineur-dindicatif/static/js/1.96e300b7.chunk.js",
  "static/js/1.96e300b7.chunk.js.map": "/crf-entraineur-dindicatif/static/js/1.96e300b7.chunk.js.map",
  "runtime~main.js": "/crf-entraineur-dindicatif/static/js/runtime~main.f4baed88.js",
  "runtime~main.js.map": "/crf-entraineur-dindicatif/static/js/runtime~main.f4baed88.js.map",
  "static/css/1.f129047b.chunk.css.map": "/crf-entraineur-dindicatif/static/css/1.f129047b.chunk.css.map",
  "static/media/carbon.png": "/crf-entraineur-dindicatif/static/media/carbon.51bd2a3e.png",
  "static/css/main.248e22c4.chunk.css.map": "/crf-entraineur-dindicatif/static/css/main.248e22c4.chunk.css.map",
  "index.html": "/crf-entraineur-dindicatif/index.html",
  "precache-manifest.72feba00f14c7ad014f67996aa3ee76d.js": "/crf-entraineur-dindicatif/precache-manifest.72feba00f14c7ad014f67996aa3ee76d.js",
  "service-worker.js": "/crf-entraineur-dindicatif/service-worker.js"
}